{"success":true,"data":{"results":[{"userId":"25025320","username":"instagram","display_name":"instagram","platform":"instagram","followers":688759908,"engagement_rate":0.03810986919407046,"verified":true,"score":0,"already_imported":false},{"userId":"173560420","username":"cristiano","display_name":"cristiano","platform":"instagram","followers":654021891,"engagement_rate":0.6302555857415482,"verified":true,"score":0,"already_imported":false},{"userId":"427553890","username":"leomessi","display_name":"leomessi","platform":"instagram","followers":505111147,"engagement_rate":0.422520471519113,"verified":true,"score":0,"already_imported":false},{"userId":"460563723","username":"selenagomez","display_name":"selenagomez","platform":"instagram","followers":420047307,"engagement_rate":0.6439855594646152,"verified":true,"score":0,"already_imported":false},{"userId":"12281817","username":"kyliejenner","display_name":"kyliejenner","platform":"instagram","followers":393771883,"engagement_rate":0.6197986970034628,"verified":true,"score":0,"already_imported":false},{"userId":"232192182","username":"therock","display_name":"therock","platform":"instagram","followers":393767945,"engagement_rate":0.05829397819571118,"verified":true,"score":0,"already_imported":false},{"userId":"7719696","username":"arianagrande","display_name":"arianagrande","platform":"instagram","followers":375371155,"engagement_rate":0.28678935119561866,"verified":true,"score":0,"already_imported":false},{"userId":"18428658","username":"kimkardashian","display_name":"kimkardashian","platform":"instagram","followers":356825637,"engagement_rate":0.25383013608968913,"verified":true,"score":0,"already_imported":false},{"userId":"247944034","username":"beyonce","display_name":"beyonce","platform":"instagram","followers":311519130,"engagement_rate":0.37494390793913684,"verified":true,"score":0,"already_imported":false},{"userId":"208560325","username":"khloekardashian","display_name":"khloekardashian","platform":"instagram","followers":302978835,"engagement_rate":0.11108548225819141,"verified":true,"score":0,"already_imported":false},{"userId":"13460080","username":"nike","display_name":"nike","platform":"instagram","followers":300855809,"engagement_rate":0.02951098079013658,"verified":true,"score":0,"already_imported":false},{"userId":"6860189","username":"justinbieber","display_name":"justinbieber","platform":"instagram","followers":294803506,"engagement_rate":0.15940193737044633,"verified":true,"score":0,"already_imported":false},{"userId":"6380930","username":"kendalljenner","display_name":"kendalljenner","platform":"instagram","followers":287767878,"engagement_rate":0.6766964449034163,"verified":true,"score":0,"already_imported":false},{"userId":"11830955","username":"taylorswift","display_name":"taylorswift","platform":"instagram","followers":281209531,"engagement_rate":1.9794793157277446,"verified":true,"score":0,"already_imported":false},{"userId":"787132","username":"natgeo","display_name":"natgeo","platform":"instagram","followers":278429378,"engagement_rate":0.01909496777312055,"verified":true,"score":0,"already_imported":false}],"total":60010588,"page":0,"limit":20,"hasMore":true,"creditsUsed":1},"filters":{"platform":"instagram","relevance":["cristiano"]},"note":"Real Modash API data"}